analizando sentencias de la Corte Constitucional
…
Rows: 397
Columns: 5
$ sentencia <chr> "T-260-10", "A038-09", "A054-12", "T-939-12", "A1…
$ type      <chr> "T", "A", "A", "T", "A", "T", "T", "C", "C", "C",…
$ year      <int> 2010, 2009, 2012, 2012, 2009, 2014, 2000, 2001, 2…
$ topic     <chr> "ACCION DE TUTELA CONTRA EL CANAL RCN TELEVISION-…
$ path      <chr> "/relatoria/2010/T-260-10.htm", "/relatoria/autos…

Como pueden ver, hay 397 observaciones. Sin embargo, algunas de estas sentencias podrían estar repetidas si aparecen en distintos temas.

df %>% 
  count(sentencia, sort = TRUE) 

# A tibble: 183 x 2
   sentencia     n
   <chr>     <int>
 1 C-492-15     19
 2 C-1262-05    14
 3 C-939-03     10
 4 C-388-16      9
 5 C-516-17      9
 6 C-743-15      9
 7 C-1114-03     8
 8 C-210-00      8
 9 C-414-12      8
10 C-155-16      7
# … with 173 more rows
…
Una vez completado este paso, lo siguiente es usar la función ccc_sentencias_citadas() en cada texto.

citaciones <- map(df$texto, ccc_sentencias_citadas)
names(citaciones) <- df$sentencia

edge_list <- enframe(citaciones, name = "from", value = "to") %>% 
  unnest(to) %>% 
  count(from, to, sort = TRUE) 

El resultado es lo que se conoce en inglés como un “edge list”:

edge_list

# A tibble: 5,362 x 3
   from     to           n
   <chr>    <chr>    <int>
 1 C-100-14 C-776-03    50
 2 C-304-12 C-822-11    45
 3 C-449-15 C-495-96    31
 4 C-978-10 C-714-08    30
 5 C-286-14 C-180-14    27
 6 C-136-99 C-122-99    26
 7 C-209-16 C-776-03    26
 8 C-694-15 C-370-06    25
 9 C-130-18 C-272-16    23
10 C-286-14 C-579-13    23
# … with 5,352 more rows

Aquí podemos ver que la sentencia C-100-14 mencionó a la sentencia C-776-03 unas 48 veces!

También podemos contar el número de veces que una sentencia ha sido mencionada por otra de manera sencilla:

edge_list %>% 
  count(to, sort = TRUE)

# A tibble: 2,622 x 2
   to            n
   <chr>     <int>
 1 C-1052-01    30
 2 C-222-95     28
 3 C-155-03     27
 4 C-776-03     27
 5 C-040-93     25
 6 C-084-95     24
 7 C-511-96     22
 8 C-987-99     21
 9 C-183-98     20
10 C-748-09     20
# … with 2,612 more rows
…
